0.00,550.19,233.19,655.22,288.36
0.00,913.34,247.89,936.31,278.29
0.00,913.26,552.52,939.65,588.73
0.00,730.03,1056.29,847.01,1097.35
0.00,1404.38,1311.65,1425.96,1348.00
0.00,1699.48,1356.92,1844.71,1396.74
0.00,1301.13,1404.72,1452.60,1444.98
0.00,1089.05,1779.78,1210.91,1818.63
0.00,1547.60,1923.52,1631.20,1963.49
9.00,222.31,234.48,269.78,270.47
9.00,899.86,320.62,1037.42,355.22
9.00,624.69,530.47,652.74,558.83
9.00,642.66,890.01,655.89,920.57
9.00,413.18,995.40,440.38,1020.35
9.00,526.29,994.65,558.85,1029.26
9.00,249.84,1164.27,272.99,1198.07
9.00,249.83,1268.27,272.99,1302.06
9.00,1387.09,1414.47,1423.86,1442.54
9.00,554.10,1477.37,579.97,1505.56
9.00,745.77,1580.09,778.00,1607.88
9.00,912.49,1582.44,936.30,1612.42
9.00,385.53,1957.81,413.79,1984.71
9.00,382.83,2065.27,409.57,2092.95
9.00,1013.72,2107.18,1040.39,2136.82
9.00,622.00,2214.61,656.74,2242.91
9.00,1306.85,2280.34,1694.71,2307.08
10.00,535.60,228.50,562.21,253.44
10.00,1676.20,227.87,1703.31,253.95
10.00,247.55,327.89,372.61,361.44
10.00,525.26,327.23,544.25,361.84
10.00,1003.11,595.53,1036.97,625.23
10.00,524.68,637.52,543.90,665.65
10.00,610.89,907.03,637.37,934.20
10.00,467.28,951.24,658.36,983.24
10.00,1020.35,1053.89,1037.70,1084.11
10.00,909.48,1115.75,920.71,1152.01
10.00,1019.50,1305.07,1037.78,1333.85
10.00,1292.99,1308.92,1305.96,1333.93
10.00,1108.45,1557.51,1119.33,1582.97
10.00,614.98,1703.89,649.50,1729.33
10.00,247.60,1772.84,269.77,1796.18
10.00,388.87,1765.24,425.17,1790.22
10.00,712.33,1772.65,738.25,1788.86
10.00,1063.44,1804.76,1096.84,1835.03
10.00,625.45,1907.13,651.90,1937.71
10.00,908.84,2011.74,926.93,2038.87
10.00,570.03,2157.80,594.73,2183.93
10.00,525.23,2261.50,535.37,2298.37
10.00,629.72,2305.40,855.97,2341.57
10.00,525.26,2369.15,534.79,2405.09
10.00,1182.92,2369.95,1414.38,2402.95
1.00,1377.25,514.51,1481.62,546.14
1.00,1645.25,513.51,1677.40,543.86
1.00,478.72,562.46,557.11,592.29
1.00,1419.65,557.56,1448.34,591.15
1.00,448.98,752.60,555.71,785.21
1.00,1020.48,753.07,1040.99,786.70
1.00,230.05,801.89,309.07,829.15
1.00,1296.07,1007.12,1332.26,1030.47
1.00,830.48,1089.09,940.98,1120.84
1.00,1018.18,1389.09,1039.84,1409.47
1.00,1696.74,1376.04,1789.06,1414.22
1.00,630.68,1754.36,653.55,1788.10
2.00,230.21,235.89,256.99,269.88
2.00,797.82,506.95,823.90,535.66
2.00,1230.28,502.57,1426.99,546.63
2.00,1429.48,504.65,1713.02,543.06
2.00,305.19,585.19,495.75,622.49
2.00,587.00,917.07,608.09,952.05
2.00,965.25,927.96,986.49,945.11
2.00,1171.94,910.97,1387.89,959.41
2.00,456.47,1030.57,568.28,1063.21
2.00,655.30,1026.27,877.23,1065.75
2.00,1147.67,1025.79,1366.23,1066.53
2.00,421.97,1071.71,931.84,1116.76
2.00,274.64,1173.93,378.89,1204.54
2.00,596.75,1180.21,619.81,1196.77
2.00,1455.44,1180.10,1477.82,1198.38
2.00,1182.69,1214.76,1276.92,1255.07
2.00,928.25,1361.34,952.27,1388.69
2.00,305.13,1856.20,330.35,1888.74
2.00,888.61,1981.52,914.84,2009.32
2.00,233.65,2026.23,491.02,2064.38
2.00,689.27,2107.28,716.15,2141.18
2.00,333.75,2185.99,361.26,2220.97
2.00,957.13,2189.22,974.51,2220.39
2.00,1124.95,2184.66,1584.53,2222.69
2.00,527.90,2233.12,661.01,2272.65
2.00,430.96,2314.25,457.75,2338.75
2.00,768.68,2309.99,870.45,2346.93
2.00,1128.28,2353.67,1155.50,2377.60
2.00,443.55,2391.16,606.32,2425.91
3.00,322.52,230.97,561.02,268.22
3.00,445.83,308.54,619.82,346.94
3.00,998.14,429.34,1286.47,484.39
3.00,1326.77,442.67,1523.91,484.05
3.00,1613.67,443.99,1759.44,483.38
3.00,228.08,490.37,397.70,531.57
3.00,829.75,632.80,844.94,661.39
3.00,1186.63,631.65,1365.06,671.94
3.00,1448.30,631.51,1824.55,671.76
3.00,1471.51,683.07,1491.82,714.08
3.00,1626.48,679.67,1734.57,718.69
3.00,769.12,731.15,788.21,763.15
3.00,1065.10,737.84,1089.46,756.41
3.00,323.73,836.38,343.29,854.25
3.00,529.29,835.36,547.06,859.94
3.00,734.63,824.36,916.14,863.09
3.00,791.68,999.78,1043.92,1037.64
3.00,1224.86,996.57,1726.08,1038.02
3.00,394.88,1048.90,584.49,1086.00
3.00,331.05,1124.02,484.11,1165.34
3.00,331.16,1206.65,597.92,1245.74
3.00,721.89,1210.42,864.43,1243.71
3.00,322.94,1283.23,709.90,1324.44
3.00,879.66,1286.44,988.47,1321.19
3.00,1207.55,1283.63,1228.09,1319.67
3.00,1411.74,1283.57,1518.94,1322.35
3.00,235.20,1434.59,264.01,1462.48
3.00,711.67,1375.89,731.01,1404.86
3.00,371.75,1417.55,752.40,1472.22
3.00,815.87,1433.44,853.77,1461.38
3.00,1179.78,1443.45,1203.50,1461.14
3.00,1530.45,1358.30,1812.28,1418.19
3.00,1392.89,1429.62,1536.90,1465.34
3.00,1139.29,1575.88,1271.63,1607.12
3.00,1323.35,1575.94,1463.02,1607.08
3.00,1556.72,1576.03,1703.37,1608.26
3.00,321.43,1626.01,350.20,1652.85
3.00,446.12,1623.84,483.85,1652.59
3.00,1022.45,1771.29,1040.41,1801.67
3.00,1680.36,1768.03,1710.70,1795.10
3.00,1804.59,1766.21,1843.40,1795.61
3.00,720.71,1813.51,767.53,1842.11
3.00,960.55,1814.76,1091.97,1847.20
3.00,1185.15,1814.11,1336.94,1847.14
3.00,1590.46,1813.92,1751.72,1850.05
3.00,1821.72,2188.43,1845.23,2219.63
4.00,772.48,410.96,798.66,438.63
4.00,1112.07,409.17,1376.68,446.16
4.00,1681.83,388.98,1834.23,448.41
4.00,228.14,453.56,325.12,495.23
4.00,385.09,457.40,414.37,484.95
4.00,560.11,455.59,888.31,494.71
4.00,267.99,536.77,296.07,566.58
4.00,750.65,534.89,788.81,562.90
4.00,1487.94,535.13,1622.96,568.78
4.00,312.93,581.77,350.08,610.54
4.00,836.49,583.78,863.73,610.83
4.00,1039.12,583.82,1068.06,610.38
4.00,637.61,677.31,654.89,709.34
4.00,1697.05,809.89,1836.46,845.95
4.00,1469.74,856.52,1664.94,895.25
4.00,458.69,906.52,487.20,932.86
4.00,895.34,904.55,1030.15,940.18
4.00,1308.55,903.77,1348.48,933.56
4.00,1579.74,903.99,1800.61,944.18
4.00,229.35,951.32,268.61,980.90
4.00,1814.67,1669.21,1837.70,1700.50
4.00,461.32,1748.36,600.47,1786.22
4.00,1320.86,1797.02,1461.88,1833.41
4.00,408.57,1843.00,713.03,1882.19
4.00,720.37,1841.66,1378.45,1882.62
4.00,1466.23,1845.14,1494.43,1872.81
4.00,229.63,1888.64,698.46,1931.42
4.00,324.20,1966.20,1479.99,2006.83
4.00,1014.99,2272.34,1049.58,2304.80
4.00,1132.29,2272.72,1173.08,2302.58
4.00,492.19,2322.71,590.52,2353.97
4.00,862.61,2322.07,1132.29,2361.04
5.00,1335.96,418.91,1475.88,454.26
5.00,1273.50,465.22,1468.33,503.80
5.00,912.46,626.16,916.73,637.93
5.00,526.69,1004.73,672.29,1056.15
5.00,1665.57,1193.92,1782.01,1232.49
5.00,250.74,1310.35,272.02,1346.90
5.00,249.96,1357.11,361.53,1394.42
5.00,641.09,1364.18,655.14,1390.15
5.00,774.33,1359.15,803.82,1386.36
5.00,1497.90,1366.70,1519.52,1385.17
5.00,251.80,1403.77,374.29,1442.83
5.00,704.63,1405.08,732.63,1431.96
5.00,794.55,1414.15,814.58,1432.52
5.00,1228.34,1405.23,1250.96,1440.68
5.00,249.00,1444.49,458.14,1487.33
5.00,658.99,1464.66,679.46,1481.66
5.00,770.11,1451.76,807.96,1481.70
5.00,1249.59,1454.05,1278.23,1481.66
5.00,247.53,1495.58,431.25,1536.83
5.00,491.82,1500.41,605.55,1537.66
5.00,694.77,1499.27,806.23,1538.69
5.00,252.38,1545.58,435.90,1586.01
5.00,494.14,1546.32,605.11,1585.84
5.00,666.72,1547.15,783.50,1586.22
5.00,1406.68,1683.18,1423.87,1713.70
5.00,1029.62,1777.78,1039.60,1809.47
5.00,1185.36,1893.58,1206.31,1929.59
5.00,1546.42,1892.40,1802.33,1931.71
5.00,1726.52,1936.84,1839.05,1980.54
5.00,465.60,1991.25,598.39,2025.52
5.00,776.83,1995.13,862.93,2023.78
5.00,1816.59,2172.77,1841.59,2204.51
6.00,922.46,403.49,949.46,432.23
6.00,1288.76,403.32,1311.43,431.07
6.00,1692.25,413.38,1713.16,431.80
6.00,599.96,452.51,640.73,485.87
6.00,1303.82,530.98,1386.68,568.77
6.00,718.18,587.34,736.65,605.83
6.00,1360.00,576.73,1643.60,617.45
6.00,599.35,627.08,641.26,658.36
6.00,1358.48,625.18,1383.08,652.91
6.00,403.19,962.33,429.70,990.77
6.00,723.96,1088.94,749.69,1116.36
6.00,1060.76,1087.75,1089.22,1115.22
6.00,1520.58,1087.24,1545.10,1123.21
6.00,367.54,1137.10,391.12,1163.34
6.00,877.20,1133.92,1001.13,1172.89
6.00,1544.26,1137.05,1581.89,1172.09
6.00,407.35,1184.47,435.92,1211.74
6.00,1197.61,1182.66,1269.97,1222.61
6.00,1418.71,1183.68,1620.65,1224.79
6.00,1405.15,1354.77,1426.23,1396.39
6.00,366.73,1830.04,450.01,1858.06
6.00,1269.56,1840.30,1289.66,1857.96
6.00,1395.96,1829.70,1425.72,1859.20
6.00,802.35,1956.38,829.76,1982.85
6.00,1411.39,1959.62,1426.80,1988.60
6.00,1821.46,1966.01,1841.78,1983.63
6.00,523.02,2011.14,544.95,2031.40
6.00,682.87,2002.29,711.64,2030.76
6.00,1588.95,2003.57,1655.55,2037.33
6.00,1731.39,2011.38,1753.70,2029.56
6.00,707.13,2043.48,1155.08,2088.41
6.00,235.40,2223.53,393.08,2260.46
6.00,441.55,2218.98,598.80,2257.12
6.00,859.73,2236.24,881.02,2253.06
7.00,695.23,232.25,724.96,260.22
7.00,1177.67,230.31,1201.96,266.98
7.00,225.01,279.05,251.79,307.31
7.00,512.10,270.79,658.49,311.49
7.00,931.77,288.93,951.42,307.28
7.00,1144.01,279.47,1173.27,306.92
7.00,1385.24,278.96,1414.91,306.91
7.00,828.93,326.31,858.57,353.64
7.00,1563.51,325.79,1592.34,360.74
7.00,604.93,599.62,633.54,635.16
7.00,602.87,646.20,632.57,681.35
7.00,1815.00,1223.19,1839.36,1254.99
7.00,1569.47,1303.30,1590.46,1321.88
7.00,239.19,1390.32,530.84,1427.94
7.00,721.46,1399.40,763.46,1423.19
7.00,1707.66,1398.80,1742.87,1425.16
7.00,852.89,1446.19,884.98,1471.94
7.00,974.90,1445.25,1011.34,1469.95
7.00,292.07,1551.11,651.38,1594.13
7.00,761.15,1552.73,1088.13,1593.63
7.00,799.97,1608.65,1821.26,1653.75
7.00,996.01,1785.39,1029.59,1808.38
7.00,1638.23,2117.16,1663.08,2143.84
7.00,1400.92,2422.02,1424.06,2461.65
7.00,1013.86,2642.88,1039.87,2670.87
8.00,1677.93,382.21,1703.97,411.39
8.00,1754.56,806.29,1833.21,841.45
8.00,233.32,1998.34,279.09,2036.19
