0.00,636.79,412.37,654.86,443.58
0.00,1003.08,412.14,1039.11,445.76
0.00,1203.06,1001.25,1427.97,1037.51
0.00,1173.87,1088.25,1283.93,1116.48
0.00,1344.41,1087.48,1427.48,1119.52
0.00,1087.69,1132.50,1224.82,1162.97
0.00,1514.64,1139.21,1530.82,1155.61
0.00,1410.06,1268.23,1501.61,1303.31
0.00,1781.40,1270.87,1805.98,1299.60
0.00,1363.11,1310.06,1456.69,1347.06
0.00,1082.84,1353.16,1343.01,1393.00
0.00,1678.87,1353.48,1705.16,1383.07
0.00,1211.14,1456.99,1738.96,1495.35
0.00,1294.66,1533.60,1393.65,1570.96
0.00,1257.23,1576.80,1690.56,1613.75
0.00,1626.54,1969.77,1851.78,2005.63
0.00,1422.38,2011.58,1648.11,2049.31
0.00,1796.28,2018.50,1806.58,2049.51
0.00,1238.76,2054.90,1681.21,2092.51
0.00,312.08,2216.26,327.85,2233.03
0.00,425.78,2163.48,556.67,2198.93
0.00,444.86,2205.39,540.36,2240.19
0.00,1295.56,2158.49,1330.28,2178.08
0.00,1087.46,2182.75,1315.79,2219.96
0.00,1658.89,2183.44,1756.21,2220.15
0.00,1090.05,2271.07,1182.30,2307.03
0.00,1193.04,2397.11,1812.14,2435.09
0.00,207.28,2464.10,299.55,2503.48
0.00,1497.51,2464.57,1727.34,2497.96
0.00,1772.05,2463.95,1849.34,2499.80
9.00,643.01,277.88,734.85,313.29
9.00,1776.29,409.95,1804.27,438.47
9.00,1772.98,453.07,1802.75,485.55
9.00,1530.27,497.73,1555.07,524.35
9.00,1794.23,908.23,1805.10,937.12
9.00,946.60,938.00,981.95,964.76
9.00,1099.15,949.42,1244.86,982.49
9.00,618.48,1021.07,651.92,1049.41
9.00,418.31,1121.73,447.59,1132.79
9.00,1221.52,1275.38,1338.27,1302.30
9.00,206.18,1386.93,271.63,1421.64
9.00,1676.73,1388.19,1699.78,1399.64
9.00,217.95,1975.27,273.10,2014.32
9.00,525.23,2076.58,551.89,2104.47
9.00,877.77,2077.97,906.41,2104.80
1.00,589.38,239.41,601.69,261.59
1.00,1669.60,232.46,1809.16,271.49
1.00,1298.51,273.12,1462.85,314.94
1.00,1790.32,379.25,1810.39,406.57
1.00,1329.48,421.91,1357.81,448.04
1.00,1691.20,427.17,1730.42,457.57
1.00,1772.21,418.63,1864.93,456.98
1.00,1676.28,462.86,1773.35,502.64
1.00,1160.46,505.25,1473.57,540.92
1.00,914.76,702.53,937.51,736.08
1.00,1183.13,738.55,1745.66,777.73
1.00,418.40,928.29,565.56,961.34
1.00,577.04,924.40,897.32,958.49
1.00,206.79,1048.55,1008.40,1087.03
1.00,201.52,1093.27,365.61,1128.92
1.00,204.84,1306.78,234.30,1336.51
1.00,1057.67,1336.50,1748.95,1646.15
1.00,1536.58,1793.27,1571.55,1823.11
1.00,265.22,1840.73,541.78,1877.92
1.00,611.70,1840.01,763.16,1876.25
1.00,733.80,1881.74,827.38,1917.83
1.00,1302.93,1917.49,1336.50,1945.09
1.00,254.92,1979.12,649.48,2018.94
1.00,257.97,2066.00,482.26,2101.69
1.00,752.07,1978.38,983.75,2014.26
1.00,907.58,2063.84,979.02,2120.51
1.00,1214.90,1957.48,1308.49,1993.89
1.00,1088.99,2008.41,1343.25,2079.63
1.00,1796.94,1959.36,1820.31,1988.00
1.00,1682.51,2044.43,1822.89,2078.91
1.00,1633.97,2088.51,1813.56,2122.04
1.00,1082.70,2129.77,1392.17,2166.77
1.00,1783.54,2132.89,1818.85,2165.88
1.00,298.97,2262.62,540.51,2301.33
1.00,624.16,2265.24,730.68,2301.51
1.00,399.89,2309.44,696.22,2345.28
1.00,781.67,2310.97,809.77,2336.69
1.00,1424.17,2299.91,1535.25,2339.77
1.00,1783.29,2259.17,1810.57,2292.58
1.00,297.94,2361.93,665.04,2404.14
1.00,753.70,2363.24,981.88,2399.75
1.00,399.67,2454.41,428.42,2479.98
1.00,530.46,2409.20,1024.04,2445.28
1.00,1292.07,2435.95,1604.22,2469.68
1.00,1290.52,2477.80,1426.30,2512.23
1.00,1566.03,2474.43,1693.90,2512.53
1.00,578.43,2550.33,698.55,2585.95
1.00,1294.33,2522.54,1522.45,2552.03
1.00,1293.69,2561.37,1509.11,2598.56
2.00,764.13,268.05,799.75,297.98
2.00,1242.33,262.78,1478.02,299.41
2.00,1499.93,252.71,1840.41,298.70
2.00,1238.51,304.81,1640.77,342.83
2.00,1288.40,388.82,1825.55,425.97
2.00,742.96,446.50,765.60,471.90
2.00,358.76,614.98,534.67,651.93
2.00,370.91,657.98,720.13,694.18
2.00,364.25,699.20,647.49,739.77
2.00,526.34,744.31,828.97,779.16
2.00,1303.96,666.61,1512.82,772.82
2.00,360.56,787.14,561.36,822.29
2.00,341.63,829.75,509.07,863.43
2.00,393.64,870.68,857.28,905.90
2.00,201.86,1004.66,382.42,1027.18
2.00,348.41,1039.27,739.39,1077.39
2.00,426.47,1085.96,635.39,1163.40
2.00,431.96,1165.45,984.81,1206.84
2.00,375.18,1212.09,636.31,1248.99
2.00,1082.43,1184.79,1287.20,1214.89
2.00,1356.40,1185.37,1516.16,1215.13
2.00,1685.59,1142.08,1854.94,1171.69
2.00,405.00,1255.46,991.30,1291.81
2.00,395.84,1371.60,603.62,1402.03
2.00,1248.60,1439.23,1435.46,1477.69
2.00,240.68,1500.85,269.43,1537.03
2.00,1342.88,1518.45,1470.35,1558.28
2.00,593.73,1609.70,743.34,1642.82
2.00,361.57,1735.72,822.25,1770.61
2.00,357.50,1777.35,741.34,1814.85
2.00,523.17,1821.92,738.24,1856.43
2.00,1323.18,1822.92,1577.63,1856.89
2.00,425.87,1863.17,843.84,1898.44
2.00,627.34,2041.83,652.21,2076.73
2.00,240.22,2123.91,269.43,2158.67
2.00,1081.90,2434.19,1195.77,2469.69
2.00,562.03,2474.35,763.05,2505.31
3.00,437.72,217.42,566.59,344.45
3.00,1340.84,237.42,1364.03,258.14
3.00,525.10,632.01,627.88,719.81
3.00,908.07,744.55,948.74,866.00
3.00,765.41,866.92,1019.45,990.45
3.00,1675.79,681.91,1771.26,776.73
3.00,1675.52,833.66,1792.51,869.51
3.00,243.23,1134.15,296.92,1169.01
3.00,1292.07,1076.40,1338.32,1174.07
3.00,716.04,1180.51,810.36,1217.75
3.00,253.37,1267.72,269.16,1301.06
3.00,477.47,1268.36,495.10,1294.25
3.00,966.85,1269.40,978.00,1293.54
3.00,250.47,1352.88,266.92,1382.18
3.00,243.26,1476.26,360.13,1515.26
3.00,1676.11,1486.51,1699.15,1517.82
3.00,1342.46,1600.29,1361.46,1622.13
3.00,1536.88,1595.39,1814.04,1630.35
3.00,1291.66,1830.34,1339.05,1923.12
3.00,611.71,2082.21,651.67,2158.55
3.00,908.17,2186.79,917.01,2229.09
3.00,649.82,2288.33,917.95,2321.98
3.00,1675.61,2247.52,1700.96,2298.60
3.00,1677.14,2358.69,1803.93,2391.26
4.00,525.66,629.59,575.87,703.34
4.00,594.86,603.74,822.68,773.68
4.00,1402.83,621.84,1422.56,667.75
4.00,1500.08,607.97,1705.57,787.16
4.00,773.83,887.51,974.63,1035.42
4.00,536.20,1377.24,837.87,1547.11
4.00,1250.84,1475.99,1775.89,1514.75
4.00,1355.00,1520.15,1523.69,1551.16
4.00,1589.18,1520.44,1807.57,1556.57
4.00,1125.80,1604.30,1199.91,1639.03
4.00,1045.01,1646.77,1321.45,1683.20
4.00,1378.69,1746.21,1402.33,1771.73
4.00,1559.73,1831.63,1571.98,1856.03
4.00,1472.89,1923.23,1632.82,1960.77
4.00,1042.18,2004.24,1072.58,2039.42
4.00,1294.47,1970.91,1306.17,2002.48
4.00,1462.96,1967.53,1537.11,2004.34
4.00,1628.18,1968.02,1812.84,2004.61
4.00,1521.41,2054.58,1673.21,2089.04
4.00,1677.55,2056.97,1680.91,2088.35
4.00,1134.73,2098.47,1303.47,2131.21
4.00,539.72,2145.36,836.61,2304.39
4.00,1042.87,2192.95,1115.61,2232.55
4.00,1096.94,2299.81,1115.34,2329.96
4.00,1201.76,2255.10,1229.85,2281.52
4.00,1186.29,2296.62,1219.67,2333.15
4.00,1295.02,2156.66,1724.68,2231.91
4.00,1408.91,2255.89,1425.95,2288.74
4.00,1594.10,2260.50,1619.98,2288.29
4.00,1555.32,2295.04,1681.31,2331.86
4.00,251.57,2367.62,270.32,2400.93
4.00,570.57,2366.39,851.04,2401.16
4.00,1233.13,2336.13,1807.46,2379.27
4.00,1238.22,2425.36,1316.90,2463.29
4.00,1096.05,2470.58,1255.40,2507.12
4.00,1365.29,2470.03,1563.49,2509.51
5.00,255.07,221.90,378.33,258.19
5.00,254.12,347.82,500.76,387.44
5.00,289.48,391.04,518.92,426.60
5.00,600.33,387.44,954.78,429.45
5.00,1083.86,393.76,1246.31,424.25
5.00,1313.60,394.57,1476.39,423.38
5.00,1669.12,350.76,1860.23,382.53
5.00,1832.34,395.03,1857.34,419.84
5.00,437.06,432.33,762.33,470.23
5.00,612.09,634.25,868.03,672.33
5.00,532.32,681.09,552.37,713.75
5.00,203.23,724.69,624.97,795.19
5.00,714.75,794.53,977.15,833.35
5.00,1082.86,720.78,1107.49,746.68
5.00,630.33,845.81,649.62,876.11
5.00,1673.70,851.24,1686.09,877.05
5.00,1842.11,849.87,1859.97,876.91
5.00,1492.14,893.17,1570.37,919.56
5.00,889.06,1013.46,962.70,1049.63
5.00,199.91,1057.35,281.45,1095.21
5.00,873.42,1059.05,902.48,1093.35
5.00,1268.07,1063.16,1337.22,1098.18
5.00,605.17,1102.94,812.64,1133.63
5.00,949.45,1102.16,971.69,1129.20
5.00,1131.73,1109.39,1152.44,1139.61
5.00,290.50,1143.88,319.47,1179.90
5.00,720.49,1143.52,740.14,1171.68
5.00,589.99,1186.29,757.69,1221.73
5.00,885.16,1145.56,972.72,1172.45
5.00,1174.65,1205.11,1324.19,1243.65
5.00,1393.78,1159.28,1543.51,1196.87
5.00,448.93,1243.86,639.03,1278.23
5.00,439.26,1282.10,700.85,1319.77
5.00,788.90,1243.74,865.80,1277.02
5.00,1406.51,1250.37,1417.20,1276.87
5.00,1447.61,1247.62,1679.80,1284.10
5.00,1110.87,1289.86,1469.44,1325.39
5.00,595.88,1350.34,616.64,1375.68
5.00,1081.24,1332.79,1335.05,1373.25
5.00,398.70,1380.09,976.34,1419.05
5.00,254.49,1421.23,283.46,1456.62
5.00,1509.15,1419.14,1602.88,1455.03
5.00,1696.99,1420.59,1849.46,1454.64
5.00,254.59,1470.10,264.66,1501.31
5.00,400.41,1471.88,427.98,1503.91
5.00,781.33,1471.72,812.40,1503.72
5.00,1083.09,1463.23,1241.72,1492.70
5.00,252.51,1548.37,282.21,1581.78
5.00,384.58,1555.86,506.32,1592.90
5.00,232.49,1611.17,411.75,1645.87
5.00,537.47,1514.83,562.67,1549.93
5.00,1083.01,1589.57,1231.73,1625.05
5.00,1578.50,1559.02,1603.63,1574.76
5.00,1134.43,1688.59,1318.42,1719.38
5.00,199.23,1888.73,397.12,1926.87
5.00,484.46,1749.87,864.07,1871.67
5.00,579.56,1897.70,604.31,1927.97
5.00,715.36,1927.64,973.97,1965.98
5.00,1136.68,1730.16,1229.42,1764.80
5.00,1280.64,1729.54,1433.25,1765.21
5.00,1208.53,1826.54,1427.90,1860.71
5.00,1135.57,1863.89,1399.94,1903.36
5.00,1136.62,1908.88,1387.54,1945.70
5.00,1488.67,1730.81,1643.02,1759.65
5.00,1696.13,1784.50,1863.39,1818.06
5.00,1660.44,1824.21,1808.07,1861.67
5.00,1657.81,1868.90,1813.71,1905.19
5.00,629.23,1977.79,649.85,2007.14
5.00,1477.07,2007.19,1723.25,2043.85
5.00,312.11,2046.47,492.37,2084.90
5.00,762.27,2047.72,959.89,2084.72
5.00,1132.93,2049.14,1421.72,2085.86
5.00,1135.00,2094.68,1283.88,2130.34
5.00,1134.76,2180.20,1388.88,2216.79
5.00,1475.96,2180.22,1627.93,2216.56
5.00,199.85,2302.98,280.36,2340.98
5.00,892.32,2260.63,967.17,2295.80
5.00,956.74,2304.85,974.07,2336.87
5.00,1137.14,2223.22,1388.68,2304.82
5.00,1289.54,2315.49,1310.08,2341.98
5.00,1628.43,2223.55,1782.41,2260.74
5.00,1608.51,2268.95,1859.12,2304.43
5.00,1559.40,2311.42,1802.64,2347.81
5.00,200.25,2392.33,216.87,2419.23
5.00,201.04,2437.41,267.29,2469.91
5.00,430.64,2389.41,508.95,2425.91
5.00,468.66,2436.80,658.51,2468.76
5.00,425.16,2478.59,439.15,2505.00
5.00,613.51,2477.26,646.01,2510.92
5.00,830.47,2478.92,845.65,2507.20
5.00,891.00,2391.02,908.71,2418.86
5.00,1272.90,2355.40,1418.14,2392.32
5.00,1257.00,2411.58,1417.75,2442.72
5.00,1136.88,2496.92,1549.08,2533.38
5.00,1567.22,2452.67,1795.03,2490.50
5.00,1137.00,2540.19,1520.53,2576.65
6.00,588.90,229.96,841.62,266.06
6.00,1201.51,231.91,1293.48,266.97
6.00,261.80,270.54,538.69,308.22
6.00,1091.24,275.51,1356.86,309.73
6.00,1604.26,270.84,1856.04,309.58
6.00,259.04,313.66,535.27,350.34
6.00,321.56,374.34,448.64,409.83
6.00,1227.94,368.40,1489.08,407.32
6.00,373.31,457.23,382.06,482.34
6.00,557.45,497.65,689.26,533.20
6.00,778.28,497.67,932.25,533.99
6.00,1229.16,422.51,1648.51,463.43
6.00,1315.42,481.69,1418.16,517.41
6.00,1630.43,481.95,1720.92,517.38
6.00,1273.08,523.48,1524.09,562.30
6.00,1229.35,564.52,1440.75,602.56
6.00,1117.84,609.05,1500.17,645.19
6.00,1619.42,608.35,1859.85,647.01
6.00,203.83,723.26,347.51,760.17
6.00,1142.73,736.05,1301.27,772.32
6.00,1638.80,693.82,1862.19,730.37
6.00,1643.97,738.81,1662.56,764.23
6.00,1255.18,905.63,1408.59,945.54
6.00,1156.67,951.75,1572.49,987.92
6.00,610.63,1022.93,927.79,1200.08
6.00,1256.73,994.94,1483.99,1032.60
6.00,1233.90,1037.74,1428.32,1073.46
6.00,1337.85,1077.65,1539.61,1119.03
6.00,1332.14,1123.75,1751.80,1161.27
6.00,1547.46,1166.15,1733.49,1201.68
6.00,913.88,1205.05,958.89,1264.90
6.00,1401.64,1208.68,1424.08,1244.22
6.00,208.87,1429.18,272.19,1511.49
6.00,1755.81,1424.42,1860.17,1451.47
6.00,1263.48,1604.45,1410.91,1640.05
6.00,1442.34,1645.72,1608.23,1682.30
6.00,1087.55,1688.14,1233.18,1725.37
6.00,1089.98,1731.99,1240.83,1767.07
6.00,1295.95,1730.47,1446.23,1767.56
6.00,1142.90,1787.01,1307.22,1822.98
6.00,1612.04,1787.02,1858.98,1823.43
6.00,1323.73,1829.35,1861.52,1866.77
6.00,1648.75,1868.96,1858.79,1906.68
6.00,1200.27,1912.03,1475.77,1949.21
6.00,1671.14,1913.66,1835.65,1949.54
6.00,912.73,1994.81,983.34,2058.78
6.00,1140.30,1967.43,1292.47,2003.46
6.00,1232.15,2020.88,1258.44,2037.20
6.00,1181.04,2051.34,1329.48,2091.50
6.00,1555.99,2010.59,1722.46,2046.62
6.00,1142.05,2106.95,1292.09,2143.49
6.00,1140.48,2150.78,1291.09,2186.53
6.00,1360.32,2151.36,1510.25,2188.33
6.00,1446.57,2249.03,1624.71,2285.28
6.00,1251.25,2301.69,1274.66,2320.47
6.00,1562.00,2293.51,1740.10,2329.11
6.00,1334.42,2337.83,1506.49,2372.61
6.00,1131.14,2393.37,1283.77,2429.29
6.00,1565.64,2393.22,1740.76,2429.10
6.00,1090.22,2437.81,1240.91,2473.01
6.00,1356.23,2437.93,1477.16,2470.91
6.00,1088.50,2479.76,1261.76,2515.19
6.00,1497.26,2479.28,1750.42,2517.39
6.00,1087.93,2522.54,1323.04,2559.06
6.00,1716.36,2522.99,1859.68,2559.35
6.00,1529.66,2568.12,1620.90,2603.23
7.00,812.75,280.52,904.71,316.85
7.00,190.95,319.59,639.27,360.22
7.00,709.76,324.57,908.29,353.82
7.00,294.56,365.61,678.50,402.80
7.00,784.61,403.89,971.37,443.12
7.00,494.98,445.92,792.45,487.21
7.00,197.94,533.22,493.03,570.69
7.00,198.93,675.93,322.77,711.81
7.00,761.70,670.10,900.15,712.79
7.00,272.22,722.07,501.03,745.43
7.00,811.01,718.31,901.68,755.27
7.00,1124.60,239.22,1821.50,863.23
7.00,1287.82,931.94,1378.64,969.38
7.00,1420.16,929.99,1514.88,965.78
7.00,521.15,1001.65,532.14,1005.21
7.00,770.91,972.08,873.19,1013.09
7.00,197.48,1245.24,477.41,1280.72
7.00,880.55,1016.15,972.10,1055.08
7.00,739.70,1200.89,892.41,1239.06
7.00,1107.90,1026.88,1789.56,1315.79
7.00,419.67,1513.62,510.15,1548.09
7.00,197.49,1556.48,290.35,1591.29
7.00,188.33,1597.31,539.92,1634.79
7.00,711.26,1597.04,938.60,1634.46
7.00,1467.68,1377.30,1799.55,1644.26
7.00,272.07,1681.87,367.73,1717.89
7.00,622.77,1681.62,718.28,1718.92
7.00,845.91,1724.47,937.92,1760.03
7.00,1320.50,1730.52,1412.80,1766.67
7.00,1452.88,1727.71,1548.08,1762.18
7.00,625.20,1938.74,649.69,1966.42
7.00,1149.59,2012.04,1552.54,2049.15
7.00,252.65,2078.39,265.49,2110.70
7.00,400.93,2078.23,648.04,2112.92
7.00,1148.98,2077.23,1590.91,2113.54
7.00,250.44,2121.58,384.58,2152.92
7.00,500.28,2128.49,573.01,2154.85
7.00,252.98,2179.74,265.18,2212.80
7.00,281.55,2176.94,557.62,2215.63
7.00,250.74,2220.34,349.87,2257.07
7.00,1296.90,2142.27,1752.67,2180.62
7.00,1315.34,2205.94,1538.84,2243.83
7.00,357.96,2319.91,458.08,2355.96
7.00,1412.13,2316.46,1609.41,2352.53
7.00,1636.38,2315.18,1861.27,2353.08
7.00,198.08,2364.85,291.92,2400.02
7.00,1086.09,2362.98,1184.53,2395.47
8.00,1218.18,793.41,1425.62,830.55
8.00,1461.29,793.98,1631.44,828.70
8.00,1683.12,795.60,1854.14,832.64
8.00,1599.68,842.22,1851.94,886.06
8.00,1085.22,934.61,1287.00,970.47
8.00,1636.42,930.34,1720.56,969.07
8.00,1089.45,978.37,1360.67,1014.12
8.00,1384.78,972.41,1637.10,1013.71
8.00,1738.23,972.69,1860.87,1009.01
8.00,1088.74,1022.25,1250.97,1058.67
8.00,1086.89,1112.06,1328.57,1154.91
8.00,1491.92,1114.84,1739.08,1154.67
8.00,1307.73,1171.23,1330.58,1199.02
8.00,210.11,1603.08,273.71,1638.55
8.00,912.53,1603.62,922.76,1637.03
8.00,810.67,1690.28,989.85,1719.27
8.00,206.54,1775.38,386.98,1806.30
8.00,618.36,1775.89,749.66,1806.26
8.00,1090.38,1924.28,1217.32,1957.68
8.00,1406.41,1921.02,1681.99,1958.59
8.00,629.35,1985.63,655.52,2019.75
8.00,1296.41,2011.44,1317.23,2038.99
8.00,1563.74,2010.05,1635.86,2043.12
8.00,333.18,2080.20,350.53,2105.78
8.00,527.84,2082.35,673.49,2112.38
8.00,320.17,2138.15,445.62,2170.51
8.00,492.46,2138.22,666.87,2171.17
8.00,496.39,2178.72,646.48,2253.28
8.00,529.78,2268.12,631.25,2287.81
