0.00,321.77,229.64,479.93,283.53
0.00,1679.04,241.02,1863.32,275.53
0.00,1370.87,600.75,1398.45,627.49
0.00,1636.28,640.63,1661.43,668.81
0.00,530.34,739.83,598.00,773.59
0.00,1765.48,764.17,1863.20,799.06
0.00,1773.09,806.17,1866.94,841.27
0.00,1088.03,1008.46,1116.04,1026.20
0.00,914.04,1461.33,977.78,1496.62
0.00,668.46,1767.74,685.56,1791.65
0.00,363.50,1980.49,380.30,2002.32
0.00,350.94,2139.81,828.56,2177.34
0.00,1443.04,2203.99,1464.46,2230.47
0.00,739.19,2275.25,776.01,2298.81
0.00,200.16,2314.66,331.90,2347.10
0.00,292.34,2443.72,312.73,2471.29
0.00,598.14,2487.46,624.84,2514.41
9.00,1790.16,322.66,1862.46,351.53
9.00,1793.45,373.74,1809.18,398.44
9.00,1596.50,1679.93,1668.16,1708.55
9.00,1248.47,1721.75,1426.90,1754.98
9.00,715.38,1936.27,823.81,1972.68
9.00,1389.91,2070.28,1471.02,2097.39
9.00,1681.56,2110.48,1701.75,2139.06
9.00,1397.43,2367.14,1424.02,2402.66
9.00,1463.36,2451.92,1498.38,2488.86
10.00,812.05,525.56,829.03,543.19
10.00,204.20,640.66,264.82,677.94
10.00,831.99,957.41,977.50,994.02
10.00,200.52,1124.17,293.58,1161.67
10.00,1271.39,1384.97,1296.74,1405.50
10.00,195.85,1884.89,266.74,1921.38
10.00,495.10,1932.28,572.71,1965.61
10.00,817.69,2117.76,911.90,2153.85
1.00,399.94,355.09,425.18,377.45
1.00,521.74,350.18,598.84,395.16
1.00,1450.06,393.22,1461.91,418.28
1.00,1772.31,434.98,1799.76,464.65
1.00,1184.62,600.59,1304.49,636.75
1.00,1085.23,787.85,1107.98,814.74
1.00,1289.82,784.57,1388.06,821.79
1.00,1767.47,869.38,1861.99,905.27
1.00,356.20,928.69,563.65,958.35
1.00,1082.25,954.11,1225.69,990.58
1.00,1310.76,953.65,1432.05,990.36
1.00,1590.38,955.14,1702.02,988.52
1.00,1327.77,1081.68,1421.28,1118.29
1.00,1817.37,1380.06,1847.96,1406.73
1.00,367.84,1973.86,631.49,2004.93
1.00,1759.40,2013.89,1856.20,2050.81
1.00,588.28,2100.06,621.99,2122.12
2.00,537.74,243.09,581.57,261.48
2.00,1090.54,241.40,1220.80,271.99
2.00,1093.28,356.33,1119.20,384.59
2.00,1393.51,355.52,1428.21,379.99
2.00,1093.42,395.15,1118.43,422.77
2.00,1683.59,469.88,1711.27,503.25
2.00,1190.23,550.75,1419.62,581.17
2.00,1183.84,589.48,1428.82,618.23
2.00,1162.09,673.70,1428.42,740.83
2.00,1097.09,747.29,1111.90,769.70
2.00,1343.46,744.00,1478.53,772.19
2.00,1394.53,822.84,1423.24,843.85
2.00,1256.33,934.10,1534.19,968.75
2.00,1256.46,975.02,1628.51,1005.41
2.00,1253.32,1012.09,1549.47,1048.04
2.00,1272.70,1377.44,1301.68,1402.86
2.00,1550.90,1418.14,1578.68,1444.15
2.00,1420.44,1461.91,1513.39,1497.44
2.00,1160.20,1804.75,1258.19,1841.47
2.00,211.09,1946.35,238.00,1979.87
2.00,212.11,2063.35,304.40,2099.14
2.00,785.45,2062.90,878.88,2099.32
2.00,383.81,2104.85,479.60,2140.65
3.00,324.52,234.65,561.53,268.19
3.00,231.60,308.50,411.61,342.04
3.00,273.78,349.30,408.22,389.04
3.00,454.91,311.91,611.57,349.90
3.00,461.00,351.19,610.87,385.91
3.00,276.69,389.08,434.77,420.13
3.00,497.93,391.11,652.25,423.20
3.00,276.17,426.10,467.23,456.23
3.00,526.01,466.87,803.52,500.89
3.00,1115.99,399.20,1242.84,431.62
3.00,1167.93,443.56,1192.41,470.94
3.00,1789.89,364.43,1809.96,389.63
3.00,286.41,546.41,596.75,579.33
3.00,332.67,582.13,605.79,619.02
3.00,628.52,619.85,657.66,658.27
3.00,531.06,664.35,553.21,687.91
3.00,332.24,700.12,562.95,731.97
3.00,435.57,778.85,795.27,810.93
3.00,463.45,816.30,783.43,850.02
3.00,392.08,889.77,690.84,928.54
3.00,388.80,933.53,676.39,966.65
3.00,398.17,1127.84,662.64,1162.35
3.00,443.43,1202.71,884.86,1237.70
3.00,384.46,1245.74,593.54,1274.73
3.00,1142.58,1300.98,1160.97,1317.66
3.00,1387.14,1300.49,1406.53,1317.80
3.00,262.84,1318.72,274.16,1353.90
3.00,634.07,1572.46,653.04,1600.67
3.00,1297.10,1885.49,1318.55,1910.93
3.00,774.81,2406.41,789.56,2432.02
4.00,1514.30,231.94,1539.87,259.29
4.00,1185.08,276.01,1200.25,295.13
4.00,1240.47,268.63,1265.48,295.22
4.00,1114.42,318.77,1128.66,336.88
4.00,1094.04,349.35,1359.73,387.99
4.00,1701.77,354.39,1714.08,379.27
4.00,1617.53,438.01,1639.32,466.13
4.00,1725.64,436.39,1750.18,465.46
4.00,1646.46,609.91,1691.74,640.61
4.00,300.49,714.23,320.74,742.32
4.00,685.03,667.42,963.65,702.36
4.00,1821.02,694.80,1847.43,721.88
4.00,1591.77,823.36,1613.86,851.13
4.00,1310.18,870.00,1338.90,893.15
4.00,1143.96,899.59,1351.90,940.74
4.00,1677.51,901.59,1862.17,938.14
4.00,1672.88,993.83,1684.75,1016.78
4.00,1089.53,1028.77,1571.84,1063.82
4.00,1320.50,1139.09,1658.69,1170.28
4.00,1395.27,1291.42,1415.54,1320.90
4.00,521.15,1595.46,539.97,1629.98
4.00,746.79,1599.16,779.48,1626.23
4.00,1082.69,1589.95,1110.32,1614.84
4.00,643.85,1635.12,870.43,1673.08
4.00,197.83,1682.96,233.11,1711.73
4.00,1313.04,1679.58,1341.30,1703.47
4.00,246.83,1719.21,461.55,1759.82
4.00,532.24,1724.47,566.24,1752.72
4.00,1765.10,1721.90,1791.17,1746.03
4.00,505.03,1763.00,741.90,1801.32
4.00,858.99,1768.61,893.37,1798.72
4.00,236.26,1848.90,432.74,1885.99
4.00,512.62,1850.66,543.10,1881.07
4.00,448.14,1900.95,467.90,1924.97
4.00,525.03,1890.54,678.50,1926.09
4.00,842.25,1890.02,973.87,1926.72
4.00,202.71,2027.20,220.23,2050.19
4.00,435.75,2494.23,465.67,2522.62
5.00,1228.47,444.96,1298.30,504.35
5.00,1391.25,429.70,1417.27,454.61
5.00,1391.86,474.35,1417.59,496.93
5.00,1520.64,419.53,1706.65,454.64
5.00,1522.73,463.74,1713.45,498.94
5.00,198.85,530.53,265.35,573.29
5.00,1167.19,573.05,1370.78,609.06
5.00,1391.19,580.67,1418.21,600.12
5.00,1480.31,572.06,1763.38,604.97
5.00,1672.55,690.92,1700.97,725.87
5.00,400.30,742.31,584.44,778.81
5.00,625.08,742.30,769.42,773.87
5.00,362.34,896.38,587.44,932.12
5.00,612.35,897.91,808.03,933.43
5.00,189.66,973.10,387.37,1010.54
5.00,399.94,977.10,581.65,1010.17
5.00,556.49,1146.04,580.60,1172.68
5.00,477.83,1198.83,500.89,1221.37
5.00,568.22,1190.94,595.37,1217.89
5.00,937.55,1190.15,965.87,1217.29
5.00,615.55,1229.03,647.26,1264.18
5.00,698.86,1273.94,725.29,1300.32
5.00,816.95,1276.44,838.91,1311.03
5.00,520.96,1900.70,546.08,1935.94
5.00,663.55,1900.78,755.96,1934.92
5.00,822.42,1941.26,844.07,1971.55
5.00,1388.33,1917.91,1417.45,1958.45
5.00,1413.15,1971.53,1430.04,1988.25
5.00,1262.75,2005.05,1285.43,2034.96
5.00,1436.56,2448.27,1462.52,2475.41
6.00,404.39,242.79,588.68,315.50
6.00,664.27,245.61,780.77,313.39
6.00,402.63,318.35,583.27,351.93
6.00,666.05,322.19,780.37,348.49
6.00,667.23,358.77,802.98,392.54
6.00,1329.28,359.77,1362.04,386.79
6.00,1104.54,403.55,1126.40,430.72
6.00,1386.11,412.44,1400.82,436.19
6.00,795.91,457.57,819.19,479.51
6.00,1237.12,445.49,1258.80,471.91
6.00,1843.98,445.90,1871.89,469.54
6.00,1266.14,488.76,1365.62,516.87
6.00,1382.21,486.04,1504.87,522.12
6.00,1602.75,487.96,1630.30,513.80
6.00,1425.19,531.92,1451.93,558.58
6.00,508.24,608.50,529.15,631.94
6.00,1373.37,615.35,1394.81,642.12
6.00,1210.38,699.67,1322.53,731.00
6.00,1493.92,699.18,1522.99,726.40
6.00,1427.60,739.08,1716.58,774.50
6.00,1765.28,738.21,1881.53,770.36
6.00,1105.94,784.47,1278.25,815.80
6.00,1516.68,783.42,1583.27,818.51
6.00,1102.65,825.34,1287.06,860.45
6.00,1688.81,868.42,1702.86,896.42
6.00,1339.38,911.36,1364.66,936.37
6.00,419.41,981.79,443.99,1008.07
6.00,291.10,1067.89,317.42,1092.36
6.00,338.26,1022.65,435.23,1059.36
6.00,486.66,1065.69,621.70,1098.59
6.00,1192.35,1038.76,1220.40,1064.20
6.00,1515.72,1036.19,1705.37,1073.86
6.00,1691.50,1080.16,1725.36,1110.05
6.00,1799.26,1038.88,1835.78,1072.10
6.00,674.18,1190.96,700.04,1219.26
6.00,916.20,1191.91,940.48,1219.29
6.00,1404.73,1210.71,1432.45,1241.30
6.00,1571.41,1164.00,1610.13,1193.22
6.00,458.72,1276.98,483.16,1302.71
6.00,816.07,1244.00,840.71,1266.41
6.00,1141.35,1246.80,1314.22,1282.79
6.00,409.14,1319.37,540.21,1348.94
6.00,600.48,1326.15,635.76,1350.49
6.00,1382.22,1341.00,1399.21,1363.25
6.00,469.00,1369.70,490.54,1392.12
6.00,258.42,1403.81,280.40,1432.26
6.00,213.64,1492.35,247.31,1518.92
6.00,263.38,1489.98,289.82,1515.43
6.00,373.97,1490.78,399.07,1516.13
6.00,739.30,1489.87,766.84,1515.52
6.00,867.48,1448.83,895.65,1473.61
6.00,1162.26,1503.33,1178.82,1526.68
6.00,1294.53,1511.21,1322.80,1537.60
6.00,1736.31,1470.11,1759.89,1492.33
6.00,461.49,1575.48,488.44,1600.14
6.00,568.35,1575.37,594.29,1599.89
6.00,1302.06,1548.39,1433.65,1578.10
6.00,1521.11,1546.90,1547.20,1572.17
6.00,1516.25,1590.07,1542.30,1614.71
6.00,1664.11,1588.01,1690.43,1620.65
6.00,1457.75,1633.55,1483.31,1657.75
6.00,1567.95,1633.20,1593.38,1658.00
6.00,708.57,1703.54,732.92,1727.84
6.00,827.32,1702.63,853.79,1727.27
6.00,1267.64,1672.72,1406.13,1707.90
6.00,1373.13,1723.48,1400.84,1746.63
6.00,1541.18,1674.89,1567.85,1698.93
6.00,1660.77,1851.57,1685.51,1874.29
6.00,466.86,1884.85,500.74,1912.12
6.00,677.05,1891.85,693.18,1908.35
6.00,319.53,1978.09,344.74,2003.16
6.00,1095.20,1966.32,1234.86,1997.71
6.00,1842.07,1975.31,1867.33,1999.63
6.00,795.84,2061.83,821.09,2087.15
6.00,734.91,2104.02,761.49,2129.36
6.00,561.25,2189.94,587.01,2217.85
6.00,650.65,2188.60,677.08,2217.63
6.00,332.94,2235.12,358.64,2259.09
6.00,776.22,2321.82,800.94,2346.22
6.00,814.27,2406.17,842.55,2430.98
6.00,215.45,2491.16,365.12,2518.91
6.00,864.08,2491.78,889.90,2516.76
7.00,1361.32,297.06,1386.29,323.48
7.00,1407.28,293.87,1432.81,327.73
7.00,1479.82,295.57,1664.64,328.44
7.00,1193.27,336.46,1486.52,371.09
7.00,1099.51,388.68,1118.37,413.02
7.00,1204.22,379.23,1218.44,407.29
7.00,1304.33,379.07,1420.25,413.66
7.00,550.43,478.87,590.47,489.62
7.00,1740.43,448.20,1876.28,485.03
7.00,1459.51,494.04,1485.50,519.07
7.00,1842.23,492.62,1873.06,518.02
7.00,1408.85,535.95,1431.56,564.95
7.00,1524.48,536.86,1538.24,564.13
7.00,652.11,594.04,663.12,624.29
7.00,1744.46,578.52,1832.58,607.30
7.00,1688.16,628.41,1709.71,652.59
7.00,644.45,794.59,661.34,819.16
7.00,1532.08,790.39,1741.22,826.21
7.00,1858.13,802.42,1878.13,819.13
7.00,1174.08,843.35,1193.56,859.75
7.00,1795.54,839.16,1814.73,865.56
7.00,1264.89,878.25,1344.17,910.33
7.00,1565.28,883.41,1582.09,903.39
7.00,1584.79,919.61,1610.86,947.48
7.00,1388.31,960.44,1432.36,991.92
7.00,1682.53,962.04,1709.09,993.74
7.00,555.08,1300.44,568.96,1326.65
7.00,588.36,1341.98,741.69,1370.12
7.00,1302.66,1341.18,1323.51,1379.72
7.00,646.73,1515.88,663.07,1541.47
7.00,1288.49,1553.52,1392.81,1590.90
7.00,1094.12,1723.71,1120.57,1755.76
7.00,1551.94,1722.42,1648.92,1757.98
7.00,1509.79,1852.11,1701.01,1884.39
7.00,1461.68,1896.08,1487.97,1921.45
7.00,1184.95,1936.61,1300.51,1971.39
7.00,1642.47,1936.42,1714.85,1972.34
7.00,1094.54,1978.98,1405.01,2013.13
7.00,1482.00,1980.10,1610.28,2015.36
7.00,1746.23,1979.94,1878.31,2013.29
7.00,1569.01,2065.23,1864.57,2101.03
7.00,1197.33,2110.15,1222.58,2141.67
7.00,1508.16,2153.26,1534.90,2179.86
7.00,1087.90,2327.45,1260.18,2360.63
7.00,1335.00,2328.85,1361.53,2354.62
7.00,1245.94,2380.20,1265.91,2396.83
7.00,1820.25,2371.37,1840.33,2402.64
7.00,1806.58,2415.52,1826.49,2446.41
7.00,1729.25,2458.20,1758.27,2483.80
7.00,1648.63,2499.55,1668.28,2532.19
8.00,531.36,262.90,590.91,303.27
8.00,213.91,308.07,240.17,337.37
8.00,213.30,347.20,240.70,370.93
8.00,489.79,349.85,519.82,375.55
8.00,534.45,344.57,560.09,372.19
8.00,638.37,313.72,660.33,339.59
8.00,917.49,306.56,945.95,337.92
8.00,1096.31,322.99,1360.30,360.09
8.00,215.47,422.75,227.41,454.80
8.00,460.65,419.55,704.25,452.69
8.00,1252.33,433.73,1278.20,456.25
8.00,1808.63,434.12,1834.27,456.47
8.00,312.97,613.72,578.52,647.26
8.00,1631.64,643.61,1661.07,666.77
8.00,548.76,729.56,780.81,762.75
8.00,402.97,805.79,660.76,838.10
8.00,408.36,845.84,762.21,878.68
8.00,1216.96,871.45,1244.48,889.82
8.00,382.21,916.82,681.93,957.58
8.00,532.98,999.18,631.18,1039.12
8.00,1159.82,990.34,1426.35,1022.95
8.00,1263.69,1130.80,1462.58,1165.43
8.00,1151.06,1316.30,1530.95,1352.08
8.00,1657.09,1326.44,1691.01,1350.10
8.00,1319.28,1366.58,1358.66,1391.89
8.00,1441.26,1356.83,1479.36,1386.30
8.00,474.01,1752.90,553.33,1787.98
8.00,470.07,1796.17,496.27,1828.26
8.00,1300.81,1779.58,1323.36,1808.00
8.00,219.91,1898.81,278.26,1937.14
8.00,637.54,2090.24,660.86,2119.86
8.00,408.30,2322.34,573.07,2355.10
8.00,636.48,2323.94,778.93,2357.96
8.00,1353.76,2339.07,1388.27,2357.33
8.00,1444.42,2333.27,1465.90,2354.94
8.00,245.27,2486.51,930.77,2529.60
